<svg width="683" height="683" viewBox="0 0 683 683" fill="none" xmlns="http://www.w3.org/2000/svg">
<g opacity="0.07">
<path d="M623.38 148.657C561.849 58.8894 458.551 0 341.5 0C152.895 0 -0.00012207 152.895 -0.00012207 341.5C-0.00012207 368.939 3.23616 395.622 9.34754 421.189L183.253 247.284C199.923 230.614 226.951 230.614 243.622 247.284L384.187 387.849L623.38 148.657Z" fill="#8794BA"/>
<path d="M663.968 228.807L414.372 478.403C397.701 495.074 370.673 495.074 354.003 478.403L213.437 337.838L43.271 508.004C101.69 612.416 213.352 683 341.5 683C530.105 683 683 530.105 683 341.5C683 302.012 676.297 264.089 663.968 228.807Z" fill="#8794BA"/>
</g>
</svg>
